{
    "rt": "PLAY",
    "your_turn": false,
    "new_square": {
        "x": 0,
        "y": 8
    },
    "next_player": 0,
    "winners": [],
    "hand": [
        {
            "color": "RED",
            "name": "Bishop"
        },
        {
            "color": "BLACK",
            "name": "Bishop"
        },
        {
            "color": "BLUE",
            "name": "Knight"
        },
        {
            "color": "RED",
            "name": "Warrior"
        }
    ],
    "game_over": false,
    "active_trumps": [
        {
            "player_index": 0,
            "player_name": "Player 1",
            "trumps": [{
              "name": "Reinforcements",
              "cost": 5,
              "description": "Allow the player to play one more move.",
              "duration": 1,
              "initiator": "",
              "must_target_player": false
            }]

        },
        {
            "player_index": 1,
            "player_name": "Player 2",
            "trumps": []
        }
    ],
    "last_action": {
      "description": "played_trump",
      "player_name": "Player 1",
      "target_name": "Player 1",
      "player_index": 0,
      "card": null,
      "special_action": null,
      "trump": {
        "cost": 5,
        "description": "Allow the player to play one more move.",
        "duration": 1,
        "initiator": "",
        "must_target_player": false,
        "name": "Reinforcements"
      }
    }
}
